PEER Advanced Field School 2023
…
---
# Let's inspect our data

```r
gr
```

```
## # A tbl_graph: 60 nodes and 101 edges
## #
## # A directed multigraph with 8 components
## #
## # A tibble: 60 × 4
##   name  AMPM            Dessert                   Pages
##   <chr> <chr>           <chr>                     <dbl>
## 1 5106  morning person. Brownies                    350
## 2 6633  morning person. I don't care for dessert.    12
## 3 7599  night owl.      Ice Cream                   300
## 4 4425  morning person. I don't care for dessert.     0
## 5 2495  morning person. Brownies                    264
## 6 6355  night owl.      Ice Cream                     4
## # ℹ 54 more rows
## #
## # A tibble: 101 × 2
##    from    to
##   <int> <int>
## 1     1     1
## 2     2    35
## 3     3    14
## # ℹ 98 more rows
```
…
```r
gr %>%
  activate(nodes) %>%
  mutate(deg = centrality_degree(mode = "total")) %>%
  arrange(desc(deg)) -> gr
  
gr
```

```
## # A tbl_graph: 60 nodes and 101 edges
## #
## # A directed multigraph with 8 components
## #
## # A tibble: 60 × 5
##   name  AMPM            Dessert                   Pages   deg
##   <chr> <chr>           <chr>                     <dbl> <dbl>
## 1 7743  morning person. Ice Cream                   300    14
## 2 2921  morning person. Ice Cream                   426    12
## 3 1386  night owl.      Ice Cream                   500    11
## 4 7040  morning person. I don't care for dessert.   400     9
## 5 9929  morning person. Brownies                    527     8
## 6 5051  night owl.      Ice Cream                   240     8
## # ℹ 54 more rows
## #
## # A tibble: 101 × 2
##    from    to
##   <int> <int>
## 1    28    28
## 2    43    32
## 3    29    10
## # ℹ 98 more rows
```
…
```r
gr %>%
  activate(nodes) %>%
  mutate(InDeg = centrality_degree(mode = "in")) %>%
  arrange(desc(InDeg)) -> gr
  
gr
```

```
## # A tbl_graph: 60 nodes and 101 edges
## #
## # A directed multigraph with 8 components
## #
## # A tibble: 60 × 6
##   name  AMPM            Dessert   Pages   deg InDeg
##   <chr> <chr>           <chr>     <dbl> <dbl> <dbl>
## 1 5844  <NA>            <NA>         NA     8     8
## 2 7743  morning person. Ice Cream   300    14     5
## 3 1386  night owl.      Ice Cream   500    11     4
## 4 2169  <NA>            <NA>         NA     4     4
## 5 4755  <NA>            <NA>         NA     4     4
## 6 9929  morning person. Brownies    527     8     3
## # ℹ 54 more rows
## #
## # A tibble: 101 × 2
##    from    to
##   <int> <int>
## 1    38    38
## 2    51    20
## 3    39    15
## # ℹ 98 more rows
```
…
