PEER Advanced Field School 2023
…
```r
gr
```

```
## # A tbl_graph: 60 nodes and 101 edges
## #
## # A directed multigraph with 8 components
## #
## # A tibble: 60 × 4
##   name  AMPM            Dessert                   Pages
##   <chr> <chr>           <chr>                     <dbl>
## 1 5106  morning person. Brownies                    350
## 2 6633  morning person. I don't care for dessert.    12
## 3 7599  night owl.      Ice Cream                   300
## 4 4425  morning person. I don't care for dessert.     0
## 5 2495  morning person. Brownies                    264
## 6 6355  night owl.      Ice Cream                     4
## # ℹ 54 more rows
## #
## # A tibble: 101 × 2
##    from    to
##   <int> <int>
## 1     1     1
## 2     2    35
## 3     3    14
## # ℹ 98 more rows
```
…
### In order to compare homophily, we need our ER_gr to have the same attributes.

There is a file that has a random graph with the attributes assigned to it.

```r
ER_gr_attr <- readRDS(here("data", "RandomGraph.rds")) 
```

```
## # A tbl_graph: 58 nodes and 101 edges
## #
## # A directed simple graph with 1 component
## #
## # A tibble: 58 × 3
##   name  AMPM            Dessert                  
##   <chr> <chr>           <chr>                    
## 1 5106  morning person. Brownies                 
## 2 6633  morning person. I don't care for dessert.
## 3 7599  night owl.      Ice Cream                
## 4 4425  morning person. I don't care for dessert.
## 5 2495  morning person. Brownies                 
## 6 6355  night owl.      Ice Cream                
## # ℹ 52 more rows
## #
## # A tibble: 101 × 2
##    from    to
##   <int> <int>
## 1     1    12
## 2     1    25
## 3     1    33
## # ℹ 98 more rows
```
…
