PEER_network_school_2023_theory_data
…
.pull-right[
### We can dummy code these

```r
WorkshopData %>%
  select(ID, Q4) %>%
  separate_rows(Q4, sep = ",") %>%
* mutate(Checked = 1) %>%
* pivot_wider(names_from = Q4,
*             values_from = Checked,
*             values_fill = 0)
```

```
## # A tibble: 34 × 11
##       ID Coffee Water `The tears of my enemies`   Tea  Milk `Fruit Juice`
##    <dbl>  <dbl> <dbl>                     <dbl> <dbl> <dbl>         <dbl>
##  1  5106      1     1                         1     0     0             0
##  2  6633      1     1                         0     1     1             0
##  3  7599      0     1                         0     1     0             1
##  4  4425      1     1                         0     0     0             1
##  5  2495      1     1                         0     0     0             0
##  6  6355      0     1                         0     1     0             1
##  7  8810      1     0                         1     0     0             0
##  8  3877      0     1                         1     1     1             0
##  9  1554      0     1                         1     0     0             1
## 10  7743      0     1                         0     1     1             1
## # ℹ 24 more rows
## # ℹ 4 more variables: `Fizzy Water` <dbl>,
## #   `A delicious 12 year single malt scotch from the Scottish lowlands with notes of apple` <dbl>,
## #   ` cinnamon` <dbl>, ` and dried fruit served with a single ice cube` <dbl>
```
…
```
## IGRAPH aa31ee1 DN-- 60 101 -- 
## + attr: name (v/c), AMPM (v/c), Dessert (v/c), Pages (v/n)
```
---
# Let's finally assemble this graph.

### Take a look at your graph

```
## # A tbl_graph: 60 nodes and 101 edges
## #
## # A directed multigraph with 8 components
## #
## # A tibble: 60 × 4
##   name  AMPM            Dessert                   Pages
##   <chr> <chr>           <chr>                     <dbl>
## 1 5106  morning person. Brownies                    350
## 2 6633  morning person. I don't care for dessert.    12
## 3 7599  night owl.      Ice Cream                   300
## 4 4425  morning person. I don't care for dessert.     0
## 5 2495  morning person. Brownies                    264
## 6 6355  night owl.      Ice Cream                     4
## # ℹ 54 more rows
## #
## # A tibble: 101 × 2
##    from    to
##   <int> <int>
## 1     1     1
## 2     2    35
## 3     3    14
## # ℹ 98 more rows
```
…
