EDUC 847
…
---
# Let's see how it did.

``` r
lr_res <- predict(lr_fit, psd_test) %>%
  bind_cols(predict(lr_fit, psd_test, type = "prob")) %>%
  bind_cols(psd_test %>% select(passing))

lr_res
```

```
## # A tibble: 130 × 4
##    .pred_class .pred_0  .pred_1 passing
##    <fct>         <dbl>    <dbl> <fct>  
##  1 0              1.00 3.21e- 9 0      
##  2 0              1    2.22e-16 0      
##  3 0              1    2.22e-16 0      
##  4 0              1.00 1.07e- 9 0      
##  5 0              1    2.22e-16 0      
##  6 0              1.00 8.72e-10 0      
##  7 0              1    2.22e-16 0      
##  8 0              1    2.22e-16 0      
##  9 0              1    2.22e-16 0      
## 10 0              1    2.22e-16 0      
## # ℹ 120 more rows
```
…
